Mini Project #2 – Gwynnie’s Epic Website!
…
[[3]]
# A tibble: 66 × 11
    Year `Fire name`           `Complex name`  County `Start date` `Size(acres)`
   <int> <chr>                 <chr>           <chr>  <chr>        <chr>        
 1  2019 243 Command Fire[18]  ""              Grant  "June 3"     20,380 acres…
 2  2019 Cold Creek Fire[19]   ""              Benton ""           42,000 acres…
 3  2019 Pipeline Fire         ""              Kitti… ""           6,515 acres …
 4  2019 Powerline Fire[20]    ""              Grant  ""           7,800 acres …
 5  2019 Williams Flats Fire   ""              Okano… ""           44,446 acres…
 6  2016 Hart Fire             ""              Linco… ""           18,220       
 7  2016 Range 12 Fire[21]     ""              Yakima ""           177,210      
 8  2016 2016 Snake River Fire ""              Garfi… ""           11,452 acres…
 9  2016 Spokane Complex Fire  "Spokane Compl… Spoka… ""           7,251 acres …
10  2015 Black Canyon Fire[22] "Chelan Comple… Chelan "August 14"  6,761        
# ℹ 56 more rows
# ℹ 5 more variables: Structureslost <chr>, Deaths <int>, Injuries <int>,
#   Notes <chr>, Image <chr>

[[4]]
# A tibble: 55 × 11
    Year `Fire name`            `Complex name` County `Start date` `Size(acres)`
   <int> <chr>                  <chr>          <chr>  <chr>        <chr>        
 1  2009 Dry Creek Complex[50]  "Dry Creek Co… Bento… ""           48,902       
 2  2009 Oden Road Fire[50]     ""             Okano… ""           9,607        
 3  2008 Badger Mountain Fire[… ""             Chela… ""           15,023       
 4  2008 Cold Springs Fire      ""             Klick… ""           7,729        
 5  2008 Columbia River Road F… ""             Okano… ""           22,115       
 6  2008 Smith Lake Fire[64]    ""             Dougl… ""           12,513       
 7  2008 Spokane Valley Fire[6… ""             Spoka… ""           1,008        
 8  2008 Swanson Lake Fire[50]  ""             Linco… ""           19,090       
 9  2007 Domke Lake Fire[50]    ""             Okano… ""           11,900       
10  2007 Easy Street Fire[50]   ""             Chelan ""           5,209        
# ℹ 45 more rows
# ℹ 5 more variables: Structureslost <int>, Deaths <int>, Injuries <chr>,
#   Notes <chr>, Image <chr>

[[5]]
# A tibble: 28 × 11
    Year `Fire name`            `Complex name` County `Start date` `Size(acres)`
   <int> <chr>                  <chr>          <chr>  <chr>        <chr>        
 1  1998 Cleveland Fire[84]     ""             Klick… ""           18,500       
 2  1998 Rattle Snake Ridge Fi… ""             Yakima ""           18,000       
 3  1997 Olympia Command Fire[… ""             Benton ""           5,500        
 4  1997 Pow Wah Kee Fire[1]    "August 3"     Asotin ""           8,000        
 5  1996 Baird Springs Fire[1]  ""             Grant  "August 2"   14,000       
 6  1996 Cold Creek Fire[50]    ""             Bento… ""           57,000       
 7  1994 Copper Butte Fire[96]  ""             Ferry  ""           10,473       
 8  1994 Rat Creek / Hatchery … ""             Chelan ""           43,000       
 9  1994 Tyee Creek Fire[98][9… ""             Chelan ""           135,000      
10  1992 Castlerock Fire[1]     ""             Wenat… ""           3,500[100]   
# ℹ 18 more rows
# ℹ 5 more variables: Structureslost <chr>, Deaths <chr>, Injuries <chr>,
#   Notes <chr>, Image <chr>

[[6]]
# A tibble: 39 × 10
    Year `Fire name`            `Complex name` County `Start date` `Size(acres)`
   <int> <chr>                  <chr>          <chr>  <chr>        <chr>        
 1  2024 Bridge Creek Fire      ""             Ferry  "July 19"    3,998 acres …
 2  2016 Buck Creek             ""             Chelan "July 22"    1,987 acres …
 3  2015 231 Fire               ""             Steve… ""           1,138        
 4  2015 Twenty-One Mile Grade… ""             Ferry  ""           2,250        
 5  2014 Hansel Fire            ""             Chelan ""           1,016        
 6  2014 Little Bridge Fire     ""             Okano… "August 2"   4,896        
 7  2014 Lone Mountain Fire     ""             Chelan "July 14"    2,770        
 8  2012 Cashmere Fire          "Wenatchee Co… Chelan ""           2,651        
 9  2012 Highway 141 Fire[84]   ""             Klick… ""           1,644        
10  2011 Salmon Fire[50]        ""             Okano… ""           1,631        
# ℹ 29 more rows
# ℹ 4 more variables: Structureslost <int>, Injuries <int>, Notes <chr>,
#   Image <chr>

[[7]]
# A tibble: 0 × 2
# ℹ 2 variables:  <lgl>,
#   This list is incomplete; you can help by adding missing items.  (September 2015) <lgl>

[[8]]
# A tibble: 24 × 10
   ``     Totalfires `Total area burned` `Total area burned` Structureslost  
   <chr>  <chr>      <chr>               <chr>               <chr>           
 1 ""     Totalfires Acres               Hectares            "Structureslost"
 2 "2002" 1,285      92,742              37,531              ""              
 3 "2003" 1,373      200,517             81,146              ""              
 4 "2004" 1,674      92,617              37,481              ""              
 5 "2005" 998        185,748             75,170              ""              
 6 "2006" 1,579      410,060             165,950             ""              
 7 "2007" 1,268      214,925             86,977              ""              
 8 "2008" 1,303      147,264             59,596              ""              
 9 "2009" 1,976      77,250              31,260              ""              
10 "2010" 870        56,820              22,990              ""              
# ℹ 14 more rows
# ℹ 5 more variables: Fatalities <chr>, Injuries <chr>, Totalcost <chr>,
#   Notes <chr>, Source <chr>
…
countysize <- html_table(countytable, header = TRUE, fill = TRUE)[[2]] |> 
  janitor::clean_names() |>
  mutate(county = str_remove(county, " County"),
         county_size_acres = parse_number(land_area_11) * 640) |>
    select(county, county_size_acres)

# Finally ! We join this last table with the main dataset
final_fires <- fullfires |> left_join(countysize)

Joining with `by = join_by(county)`

final_fires

# A tibble: 170 × 9
    year fire_name    county start_date fire_size_acres structureslost fire_type
   <int> <chr>        <chr>  <chr>                <dbl>          <dbl> <chr>    
 1  2024 Beam Road F… Yakima "June 15"             8542              0 Major    
 2  2024 Big Horn Fi… Klick… "July 22,…           51569              0 Major    
 3  2024 Black Canyo… Yakima "July 22,…            9211              0 Major    
 4  2024 Pioneer Fir… Chelan "June 8, …           36763              0 Major    
 5  2024 Retreat Fir… Yakima "July 23,…           44588              5 Major    
 6  2023 Gray Fire[1… Spoka… ""                   10085            259 Major    
 7  2020 Whitney Fire Linco… "Septembe…          127430             NA Major    
 8  2019 243 Command… Grant  "June 3"             20380              0 Major    
 9  2019 Cold Creek … Benton ""                   42000             NA Major    
10  2019 Pipeline Fi… Kitti… ""                    6515             NA Major    
# ℹ 160 more rows
# ℹ 2 more variables: forest_coverage_acres <dbl>, county_size_acres <dbl>
…
